%YAML 1.1
%TAG !u! tag:unity3d.com,2011:
--- !u!74 &7400000
AnimationClip:
  m_ObjectHideFlags: 0
  m_PrefabParentObject: {fileID: 0}
  m_PrefabInternal: {fileID: 0}
  m_Name: SwordSwing
  serializedVersion: 6
  m_Legacy: 1
  m_Compressed: 0
  m_UseHighQualityCurve: 1
  m_RotationCurves:
  - curve:
      serializedVersion: 2
      m_Curve:
      - serializedVersion: 2
        time: 0
        value: {x: 0, y: 0, z: 0.0230365, w: -0.99973464}
        inSlope: {x: 0, y: 0, z: 13.662915, w: 1.9009923}
        outSlope: {x: 0, y: 0, z: 13.662915, w: 1.9009923}
        tangentMode: 0
      - serializedVersion: 2
        time: 0.016666668
        value: {x: 0, y: 0, z: 0.25075176, w: -0.96805143}
        inSlope: {x: 0, y: 0, z: 14.998596, w: 4.4218698}
        outSlope: {x: 0, y: 0, z: 14.998596, w: 4.4218698}
        tangentMode: 0
      - serializedVersion: 2
        time: 0.033333335
        value: {x: 0, y: 0, z: 0.52298975, w: -0.85233897}
        inSlope: {x: 0, y: 0, z: 11.540079, w: 5.8765674}
        outSlope: {x: 0, y: 0, z: 11.540079, w: 5.8765674}
        tangentMode: 0
      - serializedVersion: 2
        time: 0.050000004
        value: {x: 0, y: 0, z: 0.6354211, w: -0.77216583}
        inSlope: {x: 0, y: 0, z: 5.8917756, w: 4.731738}
        outSlope: {x: 0, y: 0, z: 5.8917756, w: 4.731738}
        tangentMode: 0
      - serializedVersion: 2
        time: 0.06666667
        value: {x: 0, y: 0, z: 0.7193823, w: -0.69461435}
        inSlope: {x: 0, y: 0, z: 5.2304506, w: 5.56253}
        outSlope: {x: 0, y: 0, z: 5.2304506, w: 5.56253}
        tangentMode: 0
      - serializedVersion: 2
        time: 0.083333336
        value: {x: 0, y: 0, z: 0.80976945, w: -0.5867482}
        inSlope: {x: 0, y: 0, z: 5.0484147, w: 7.0236073}
        outSlope: {x: 0, y: 0, z: 5.0484147, w: 7.0236073}
        tangentMode: 0
      - serializedVersion: 2
        time: 0.1
        value: {x: 0, y: 0, z: 0.88766277, w: -0.46049413}
        inSlope: {x: 0, y: 0, z: 4.158454, w: 8.08877}
        outSlope: {x: 0, y: 0, z: 4.158454, w: 8.08877}
        tangentMode: 0
      - serializedVersion: 2
        time: 0.11666667
        value: {x: 0, y: 0, z: 0.9483846, w: -0.31712252}
        inSlope: {x: 0, y: 0, z: 2.9632523, w: 8.890766}
        outSlope: {x: 0, y: 0, z: 2.9632523, w: 8.890766}
        tangentMode: 0
      - serializedVersion: 2
        time: 0.13333334
        value: {x: 0, y: 0, z: 0.98643786, w: -0.16413522}
        inSlope: {x: 0, y: 0, z: 1.5435303, w: 8.969729}
        outSlope: {x: 0, y: 0, z: 1.5435303, w: 8.969729}
        tangentMode: 0
      - serializedVersion: 2
        time: 0.15
        value: {x: 0, y: 0, z: 0.9998356, w: -0.018131498}
        inSlope: {x: 0, y: 0, z: 0.112972856, w: 9.1129875}
        outSlope: {x: 0, y: 0, z: 0.112972856, w: 9.1129875}
        tangentMode: 0
      - serializedVersion: 2
        time: 0.16666667
        value: {x: 0, y: 0, z: 0.9902036, w: 0.139631}
        inSlope: {x: 0, y: 0, z: -2.002913, w: 11.334645}
        outSlope: {x: 0, y: 0, z: -2.002913, w: 11.334645}
        tangentMode: 0
      - serializedVersion: 2
        time: 0.18333334
        value: {x: 0, y: 0, z: 0.93307185, w: 0.35968998}
        inSlope: {x: 0, y: 0, z: -4.125624, w: 11.483936}
        outSlope: {x: 0, y: 0, z: -4.125624, w: 11.483936}
        tangentMode: 0
      - serializedVersion: 2
        time: 0.2
        value: {x: 0, y: 0, z: 0.8526828, w: 0.5224289}
        inSlope: {x: 0, y: 0, z: -5.148036, w: 8.655281}
        outSlope: {x: 0, y: 0, z: -5.148036, w: 8.655281}
        tangentMode: 0
      - serializedVersion: 2
        time: 0.21666667
        value: {x: 0, y: 0, z: 0.7614707, w: 0.6481993}
        inSlope: {x: 0, y: 0, z: -4.4723177, w: 5.644856}
        outSlope: {x: 0, y: 0, z: -4.4723177, w: 5.644856}
        tangentMode: 0
      - serializedVersion: 2
        time: 0.23333333
        value: {x: 0, y: 0, z: 0.7036056, w: 0.7105907}
        inSlope: {x: 0, y: 0, z: -5.3855433, w: 4.9507017}
        outSlope: {x: 0, y: 0, z: -5.3855433, w: 4.9507017}
        tangentMode: 0
      - serializedVersion: 2
        time: 0.25
        value: {x: -0, y: -0, z: 0.5819526, w: 0.8132227}
        inSlope: {x: 0, y: 0, z: -21.799248, w: 8.674313}
        outSlope: {x: 0, y: 0, z: -21.799248, w: 8.674313}
        tangentMode: 0
      - serializedVersion: 2
        time: 0.26666668
        value: {x: -0, y: -0, z: -0.0230365, w: 0.99973464}
        inSlope: {x: 0, y: 0, z: -36.299313, w: 11.190706}
        outSlope: {x: 0, y: 0, z: -36.299313, w: 11.190706}
        tangentMode: 0
      m_PreInfinity: 2
      m_PostInfinity: 2
      m_RotationOrder: 4
    path: 
  m_CompressedRotationCurves: []
  m_EulerCurves: []
  m_PositionCurves:
  - curve:
      serializedVersion: 2
      m_Curve:
      - serializedVersion: 2
        time: 0
        value: {x: -1.19, y: -0.45, z: 0}
        inSlope: {x: 0, y: 0, z: 0}
        outSlope: {x: 0, y: 0, z: 0}
        tangentMode: 0
      - serializedVersion: 2
        time: 0.016666668
        value: {x: -4.96, y: 1.4, z: 0}
        inSlope: {x: 0, y: 183.89998, z: 0}
        outSlope: {x: 0, y: 183.89998, z: 0}
        tangentMode: 0
      - serializedVersion: 2
        time: 0.033333335
        value: {x: -3.95, y: 5.68, z: 0}
        inSlope: {x: 17.6, y: 121.19999, z: 0}
        outSlope: {x: 17.6, y: 121.19999, z: 0}
        tangentMode: 0
      - serializedVersion: 2
        time: 0.06666667
        value: {x: -3.73, y: 7.46, z: 0}
        inSlope: {x: 13.200002, y: 43.80001, z: 0}
        outSlope: {x: 13.200002, y: 43.80001, z: 0}
        tangentMode: 0
      - serializedVersion: 2
        time: 0.1
        value: {x: -0.39, y: 8.6, z: 0}
        inSlope: {x: 87.299995, y: 0, z: 0}
        outSlope: {x: 87.299995, y: 0, z: 0}
        tangentMode: 0
      - serializedVersion: 2
        time: 0.13333334
        value: {x: 2.09, y: 7.33, z: 0}
        inSlope: {x: 49.95, y: 0, z: 0}
        outSlope: {x: 49.95, y: 0, z: 0}
        tangentMode: 0
      - serializedVersion: 2
        time: 0.16666667
        value: {x: 2.94, y: 7.5, z: 0}
        inSlope: {x: 68.000015, y: 13.600007, z: 0}
        outSlope: {x: 68.000015, y: 13.600007, z: 0}
        tangentMode: 0
      - serializedVersion: 2
        time: 0.18333334
        value: {x: 7.18, y: 8.8, z: 0}
        inSlope: {x: 215.40001, y: 0, z: 0}
        outSlope: {x: 215.40001, y: 0, z: 0}
        tangentMode: 0
      - serializedVersion: 2
        time: 0.2
        value: {x: 10.12, y: 6.78, z: 0}
        inSlope: {x: 89.20001, y: -136.80002, z: 0}
        outSlope: {x: 89.20001, y: -136.80002, z: 0}
        tangentMode: 0
      - serializedVersion: 2
        time: 0.23333333
        value: {x: 11.64, y: 1.96, z: 0}
        inSlope: {x: 24.79996, y: -163.20001, z: 0}
        outSlope: {x: 24.79996, y: -163.20001, z: 0}
        tangentMode: 0
      - serializedVersion: 2
        time: 0.25
        value: {x: 11.95, y: -1.38, z: 0}
        inSlope: {x: 0, y: 0, z: 0}
        outSlope: {x: 0, y: 0, z: 0}
        tangentMode: 0
      - serializedVersion: 2
        time: 0.26666668
        value: {x: -1.19, y: -0.45, z: 0}
        inSlope: {x: 0, y: 0, z: 0}
        outSlope: {x: 0, y: 0, z: 0}
        tangentMode: 0
      m_PreInfinity: 2
      m_PostInfinity: 2
      m_RotationOrder: 4
    path: 
  m_ScaleCurves: []
  m_FloatCurves:
  - curve:
      serializedVersion: 2
      m_Curve:
      - serializedVersion: 2
        time: 0
        value: 0
        inSlope: Infinity
        outSlope: Infinity
        tangentMode: 103
      - serializedVersion: 2
        time: 0.016666668
        value: 0
        inSlope: Infinity
        outSlope: Infinity
        tangentMode: 103
      - serializedVersion: 2
        time: 0.033333335
        value: 0
        inSlope: Infinity
        outSlope: Infinity
        tangentMode: 103
      - serializedVersion: 2
        time: 0.06666667
        value: 0
        inSlope: Infinity
        outSlope: Infinity
        tangentMode: 103
      - serializedVersion: 2
        time: 0.1
        value: 1
        inSlope: Infinity
        outSlope: Infinity
        tangentMode: 103
      - serializedVersion: 2
        time: 0.18333334
        value: 1
        inSlope: Infinity
        outSlope: Infinity
        tangentMode: 103
      - serializedVersion: 2
        time: 0.2
        value: 1
        inSlope: Infinity
        outSlope: Infinity
        tangentMode: 103
      - serializedVersion: 2
        time: 0.23333333
        value: 1
        inSlope: Infinity
        outSlope: Infinity
        tangentMode: 103
      - serializedVersion: 2
        time: 0.25
        value: 1
        inSlope: Infinity
        outSlope: Infinity
        tangentMode: 103
      - serializedVersion: 2
        time: 0.26666668
        value: 0
        inSlope: Infinity
        outSlope: Infinity
        tangentMode: 103
      m_PreInfinity: 2
      m_PostInfinity: 2
      m_RotationOrder: 4
    attribute: m_Enabled
    path: 
    classID: 61
    script: {fileID: 0}
  m_PPtrCurves: []
  m_SampleRate: 60
  m_WrapMode: 0
  m_Bounds:
    m_Center: {x: 0, y: 0, z: 0}
    m_Extent: {x: 0, y: 0, z: 0}
  m_ClipBindingConstant:
    genericBindings: []
    pptrCurveMapping: []
  m_AnimationClipSettings:
    serializedVersion: 2
    m_AdditiveReferencePoseClip: {fileID: 0}
    m_AdditiveReferencePoseTime: 0
    m_StartTime: 0
    m_StopTime: 0.26666668
    m_OrientationOffsetY: 0
    m_Level: 0
    m_CycleOffset: 0
    m_HasAdditiveReferencePose: 0
    m_LoopTime: 1
    m_LoopBlend: 0
    m_LoopBlendOrientation: 0
    m_LoopBlendPositionY: 0
    m_LoopBlendPositionXZ: 0
    m_KeepOriginalOrientation: 0
    m_KeepOriginalPositionY: 1
    m_KeepOriginalPositionXZ: 0
    m_HeightFromFeet: 0
    m_Mirror: 0
  m_EditorCurves:
  - curve:
      serializedVersion: 2
      m_Curve:
      - serializedVersion: 2
        time: 0
        value: -1.19
        inSlope: 0
        outSlope: 0
        tangentMode: 136
      - serializedVersion: 2
        time: 0.016666668
        value: -4.96
        inSlope: 0
        outSlope: 0
        tangentMode: 136
      - serializedVersion: 2
        time: 0.033333335
        value: -3.95
        inSlope: 17.6
        outSlope: 17.6
        tangentMode: 136
      - serializedVersion: 2
        time: 0.06666667
        value: -3.73
        inSlope: 13.200002
        outSlope: 13.200002
        tangentMode: 136
      - serializedVersion: 2
        time: 0.1
        value: -0.39
        inSlope: 87.299995
        outSlope: 87.299995
        tangentMode: 136
      - serializedVersion: 2
        time: 0.13333334
        value: 2.09
        inSlope: 49.95
        outSlope: 49.95
        tangentMode: 136
      - serializedVersion: 2
        time: 0.16666667
        value: 2.94
        inSlope: 68.000015
        outSlope: 68.000015
        tangentMode: 136
      - serializedVersion: 2
        time: 0.18333334
        value: 7.18
        inSlope: 215.40001
        outSlope: 215.40001
        tangentMode: 136
      - serializedVersion: 2
        time: 0.2
        value: 10.12
        inSlope: 89.20001
        outSlope: 89.20001
        tangentMode: 136
      - serializedVersion: 2
        time: 0.23333333
        value: 11.64
        inSlope: 24.79996
        outSlope: 24.79996
        tangentMode: 136
      - serializedVersion: 2
        time: 0.25
        value: 11.95
        inSlope: 0
        outSlope: 0
        tangentMode: 136
      - serializedVersion: 2
        time: 0.26666668
        value: -1.19
        inSlope: 0
        outSlope: 0
        tangentMode: 136
      m_PreInfinity: 2
      m_PostInfinity: 2
      m_RotationOrder: 4
    attribute: m_LocalPosition.x
    path: 
    classID: 4
    script: {fileID: 0}
  - curve:
      serializedVersion: 2
      m_Curve:
      - serializedVersion: 2
        time: 0
        value: -0.45
        inSlope: 0
        outSlope: 0
        tangentMode: 136
      - serializedVersion: 2
        time: 0.016666668
        value: 1.4
        inSlope: 183.89998
        outSlope: 183.89998
        tangentMode: 136
      - serializedVersion: 2
        time: 0.033333335
        value: 5.68
        inSlope: 121.19999
        outSlope: 121.19999
        tangentMode: 136
      - serializedVersion: 2
        time: 0.06666667
        value: 7.46
        inSlope: 43.80001
        outSlope: 43.80001
        tangentMode: 136
      - serializedVersion: 2
        time: 0.1
        value: 8.6
        inSlope: 0
        outSlope: 0
        tangentMode: 136
      - serializedVersion: 2
        time: 0.13333334
        value: 7.33
        inSlope: 0
        outSlope: 0
        tangentMode: 136
      - serializedVersion: 2
        time: 0.16666667
        value: 7.5
        inSlope: 13.600007
        outSlope: 13.600007
        tangentMode: 136
      - serializedVersion: 2
        time: 0.18333334
        value: 8.8
        inSlope: 0
        outSlope: 0
        tangentMode: 136
      - serializedVersion: 2
        time: 0.2
        value: 6.78
        inSlope: -136.80002
        outSlope: -136.80002
        tangentMode: 136
      - serializedVersion: 2
        time: 0.23333333
        value: 1.96
        inSlope: -163.20001
        outSlope: -163.20001
        tangentMode: 136
      - serializedVersion: 2
        time: 0.25
        value: -1.38
        inSlope: 0
        outSlope: 0
        tangentMode: 136
      - serializedVersion: 2
        time: 0.26666668
        value: -0.45
        inSlope: 0
        outSlope: 0
        tangentMode: 136
      m_PreInfinity: 2
      m_PostInfinity: 2
      m_RotationOrder: 4
    attribute: m_LocalPosition.y
    path: 
    classID: 4
    script: {fileID: 0}
  - curve:
      serializedVersion: 2
      m_Curve:
      - serializedVersion: 2
        time: 0
        value: 0
        inSlope: 0
        outSlope: 0
        tangentMode: 136
      - serializedVersion: 2
        time: 0.016666668
        value: 0
        inSlope: 0
        outSlope: 0
        tangentMode: 136
      - serializedVersion: 2
        time: 0.033333335
        value: 0
        inSlope: 0
        outSlope: 0
        tangentMode: 136
      - serializedVersion: 2
        time: 0.06666667
        value: 0
        inSlope: 0
        outSlope: 0
        tangentMode: 136
      - serializedVersion: 2
        time: 0.1
        value: 0
        inSlope: 0
        outSlope: 0
        tangentMode: 136
      - serializedVersion: 2
        time: 0.13333334
        value: 0
        inSlope: 0
        outSlope: 0
        tangentMode: 136
      - serializedVersion: 2
        time: 0.16666667
        value: 0
        inSlope: 0
        outSlope: 0
        tangentMode: 136
      - serializedVersion: 2
        time: 0.18333334
        value: 0
        inSlope: 0
        outSlope: 0
        tangentMode: 136
      - serializedVersion: 2
        time: 0.2
        value: 0
        inSlope: 0
        outSlope: 0
        tangentMode: 136
      - serializedVersion: 2
        time: 0.23333333
        value: 0
        inSlope: 0
        outSlope: 0
        tangentMode: 136
      - serializedVersion: 2
        time: 0.25
        value: 0
        inSlope: 0
        outSlope: 0
        tangentMode: 136
      - serializedVersion: 2
        time: 0.26666668
        value: 0
        inSlope: 0
        outSlope: 0
        tangentMode: 136
      m_PreInfinity: 2
      m_PostInfinity: 2
      m_RotationOrder: 4
    attribute: m_LocalPosition.z
    path: 
    classID: 4
    script: {fileID: 0}
  - curve:
      serializedVersion: 2
      m_Curve:
      - serializedVersion: 2
        time: 0
        value: 0
        inSlope: Infinity
        outSlope: Infinity
        tangentMode: 103
      - serializedVersion: 2
        time: 0.016666668
        value: 0
        inSlope: Infinity
        outSlope: Infinity
        tangentMode: 103
      - serializedVersion: 2
        time: 0.033333335
        value: 0
        inSlope: Infinity
        outSlope: Infinity
        tangentMode: 103
      - serializedVersion: 2
        time: 0.06666667
        value: 0
        inSlope: Infinity
        outSlope: Infinity
        tangentMode: 103
      - serializedVersion: 2
        time: 0.1
        value: 1
        inSlope: Infinity
        outSlope: Infinity
        tangentMode: 103
      - serializedVersion: 2
        time: 0.18333334
        value: 1
        inSlope: Infinity
        outSlope: Infinity
        tangentMode: 103
      - serializedVersion: 2
        time: 0.2
        value: 1
        inSlope: Infinity
        outSlope: Infinity
        tangentMode: 103
      - serializedVersion: 2
        time: 0.23333333
        value: 1
        inSlope: Infinity
        outSlope: Infinity
        tangentMode: 103
      - serializedVersion: 2
        time: 0.25
        value: 1
        inSlope: Infinity
        outSlope: Infinity
        tangentMode: 103
      - serializedVersion: 2
        time: 0.26666668
        value: 0
        inSlope: Infinity
        outSlope: Infinity
        tangentMode: 103
      m_PreInfinity: 2
      m_PostInfinity: 2
      m_RotationOrder: 4
    attribute: m_Enabled
    path: 
    classID: 61
    script: {fileID: 0}
  - curve:
      serializedVersion: 2
      m_Curve:
      - serializedVersion: 2
        time: 0
        value: 0
        inSlope: 0
        outSlope: 0
        tangentMode: 0
      - serializedVersion: 2
        time: 0.016666668
        value: 0
        inSlope: 0
        outSlope: 0
        tangentMode: 0
      - serializedVersion: 2
        time: 0.033333335
        value: 0
        inSlope: 0
        outSlope: 0
        tangentMode: 0
      - serializedVersion: 2
        time: 0.050000004
        value: 0
        inSlope: 0
        outSlope: 0
        tangentMode: 0
      - serializedVersion: 2
        time: 0.06666667
        value: 0
        inSlope: 0
        outSlope: 0
        tangentMode: 0
      - serializedVersion: 2
        time: 0.083333336
        value: 0
        inSlope: 0
        outSlope: 0
        tangentMode: 0
      - serializedVersion: 2
        time: 0.1
        value: 0
        inSlope: 0
        outSlope: 0
        tangentMode: 0
      - serializedVersion: 2
        time: 0.11666667
        value: 0
        inSlope: 0
        outSlope: 0
        tangentMode: 0
      - serializedVersion: 2
        time: 0.13333334
        value: 0
        inSlope: 0
        outSlope: 0
        tangentMode: 0
      - serializedVersion: 2
        time: 0.15
        value: 0
        inSlope: 0
        outSlope: 0
        tangentMode: 0
      - serializedVersion: 2
        time: 0.16666667
        value: 0
        inSlope: 0
        outSlope: 0
        tangentMode: 0
      - serializedVersion: 2
        time: 0.18333334
        value: 0
        inSlope: 0
        outSlope: 0
        tangentMode: 0
      - serializedVersion: 2
        time: 0.2
        value: 0
        inSlope: 0
        outSlope: 0
        tangentMode: 0
      - serializedVersion: 2
        time: 0.21666667
        value: 0
        inSlope: 0
        outSlope: 0
        tangentMode: 0
      - serializedVersion: 2
        time: 0.23333333
        value: 0
        inSlope: 0
        outSlope: 0
        tangentMode: 0
      - serializedVersion: 2
        time: 0.25
        value: -0
        inSlope: 0
        outSlope: 0
        tangentMode: 0
      - serializedVersion: 2
        time: 0.26666668
        value: -0
        inSlope: 0
        outSlope: 0
        tangentMode: 0
      m_PreInfinity: 2
      m_PostInfinity: 2
      m_RotationOrder: 4
    attribute: m_LocalRotation.x
    path: 
    classID: 4
    script: {fileID: 0}
  - curve:
      serializedVersion: 2
      m_Curve:
      - serializedVersion: 2
        time: 0
        value: 0
        inSlope: 0
        outSlope: 0
        tangentMode: 0
      - serializedVersion: 2
        time: 0.016666668
        value: 0
        inSlope: 0
        outSlope: 0
        tangentMode: 0
      - serializedVersion: 2
        time: 0.033333335
        value: 0
        inSlope: 0
        outSlope: 0
        tangentMode: 0
      - serializedVersion: 2
        time: 0.050000004
        value: 0
        inSlope: 0
        outSlope: 0
        tangentMode: 0
      - serializedVersion: 2
        time: 0.06666667
        value: 0
        inSlope: 0
        outSlope: 0
        tangentMode: 0
      - serializedVersion: 2
        time: 0.083333336
        value: 0
        inSlope: 0
        outSlope: 0
        tangentMode: 0
      - serializedVersion: 2
        time: 0.1
        value: 0
        inSlope: 0
        outSlope: 0
        tangentMode: 0
      - serializedVersion: 2
        time: 0.11666667
        value: 0
        inSlope: 0
        outSlope: 0
        tangentMode: 0
      - serializedVersion: 2
        time: 0.13333334
        value: 0
        inSlope: 0
        outSlope: 0
        tangentMode: 0
      - serializedVersion: 2
        time: 0.15
        value: 0
        inSlope: 0
        outSlope: 0
        tangentMode: 0
      - serializedVersion: 2
        time: 0.16666667
        value: 0
        inSlope: 0
        outSlope: 0
        tangentMode: 0
      - serializedVersion: 2
        time: 0.18333334
        value: 0
        inSlope: 0
        outSlope: 0
        tangentMode: 0
      - serializedVersion: 2
        time: 0.2
        value: 0
        inSlope: 0
        outSlope: 0
        tangentMode: 0
      - serializedVersion: 2
        time: 0.21666667
        value: 0
        inSlope: 0
        outSlope: 0
        tangentMode: 0
      - serializedVersion: 2
        time: 0.23333333
        value: 0
        inSlope: 0
        outSlope: 0
        tangentMode: 0
      - serializedVersion: 2
        time: 0.25
        value: -0
        inSlope: 0
        outSlope: 0
        tangentMode: 0
      - serializedVersion: 2
        time: 0.26666668
        value: -0
        inSlope: 0
        outSlope: 0
        tangentMode: 0
      m_PreInfinity: 2
      m_PostInfinity: 2
      m_RotationOrder: 4
    attribute: m_LocalRotation.y
    path: 
    classID: 4
    script: {fileID: 0}
  - curve:
      serializedVersion: 2
      m_Curve:
      - serializedVersion: 2
        time: 0
        value: 0.0230365
        inSlope: 13.662915
        outSlope: 13.662915
        tangentMode: 0
      - serializedVersion: 2
        time: 0.016666668
        value: 0.25075176
        inSlope: 14.998596
        outSlope: 14.998596
        tangentMode: 0
      - serializedVersion: 2
        time: 0.033333335
        value: 0.52298975
        inSlope: 11.540079
        outSlope: 11.540079
        tangentMode: 0
      - serializedVersion: 2
        time: 0.050000004
        value: 0.6354211
        inSlope: 5.8917756
        outSlope: 5.8917756
        tangentMode: 0
      - serializedVersion: 2
        time: 0.06666667
        value: 0.7193823
        inSlope: 5.2304506
        outSlope: 5.2304506
        tangentMode: 0
      - serializedVersion: 2
        time: 0.083333336
        value: 0.80976945
        inSlope: 5.0484147
        outSlope: 5.0484147
        tangentMode: 0
      - serializedVersion: 2
        time: 0.1
        value: 0.88766277
        inSlope: 4.158454
        outSlope: 4.158454
        tangentMode: 0
      - serializedVersion: 2
        time: 0.11666667
        value: 0.9483846
        inSlope: 2.9632523
        outSlope: 2.9632523
        tangentMode: 0
      - serializedVersion: 2
        time: 0.13333334
        value: 0.98643786
        inSlope: 1.5435303
        outSlope: 1.5435303
        tangentMode: 0
      - serializedVersion: 2
        time: 0.15
        value: 0.9998356
        inSlope: 0.112972856
        outSlope: 0.112972856
        tangentMode: 0
      - serializedVersion: 2
        time: 0.16666667
        value: 0.9902036
        inSlope: -2.002913
        outSlope: -2.002913
        tangentMode: 0
      - serializedVersion: 2
        time: 0.18333334
        value: 0.93307185
        inSlope: -4.125624
        outSlope: -4.125624
        tangentMode: 0
      - serializedVersion: 2
        time: 0.2
        value: 0.8526828
        inSlope: -5.148036
        outSlope: -5.148036
        tangentMode: 0
      - serializedVersion: 2
        time: 0.21666667
        value: 0.7614707
        inSlope: -4.4723177
        outSlope: -4.4723177
        tangentMode: 0
      - serializedVersion: 2
        time: 0.23333333
        value: 0.7036056
        inSlope: -5.3855433
        outSlope: -5.3855433
        tangentMode: 0
      - serializedVersion: 2
        time: 0.25
        value: 0.5819526
        inSlope: -21.799248
        outSlope: -21.799248
        tangentMode: 0
      - serializedVersion: 2
        time: 0.26666668
        value: -0.0230365
        inSlope: -36.299313
        outSlope: -36.299313
        tangentMode: 0
      m_PreInfinity: 2
      m_PostInfinity: 2
      m_RotationOrder: 4
    attribute: m_LocalRotation.z
    path: 
    classID: 4
    script: {fileID: 0}
  - curve:
      serializedVersion: 2
      m_Curve:
      - serializedVersion: 2
        time: 0
        value: -0.99973464
        inSlope: 1.9009923
        outSlope: 1.9009923
        tangentMode: 0
      - serializedVersion: 2
        time: 0.016666668
        value: -0.96805143
        inSlope: 4.4218698
        outSlope: 4.4218698
        tangentMode: 0
      - serializedVersion: 2
        time: 0.033333335
        value: -0.85233897
        inSlope: 5.8765674
        outSlope: 5.8765674
        tangentMode: 0
      - serializedVersion: 2
        time: 0.050000004
        value: -0.77216583
        inSlope: 4.731738
        outSlope: 4.731738
        tangentMode: 0
      - serializedVersion: 2
        time: 0.06666667
        value: -0.69461435
        inSlope: 5.56253
        outSlope: 5.56253
        tangentMode: 0
      - serializedVersion: 2
        time: 0.083333336
        value: -0.5867482
        inSlope: 7.0236073
        outSlope: 7.0236073
        tangentMode: 0
      - serializedVersion: 2
        time: 0.1
        value: -0.46049413
        inSlope: 8.08877
        outSlope: 8.08877
        tangentMode: 0
      - serializedVersion: 2
        time: 0.11666667
        value: -0.31712252
        inSlope: 8.890766
        outSlope: 8.890766
        tangentMode: 0
      - serializedVersion: 2
        time: 0.13333334
        value: -0.16413522
        inSlope: 8.969729
        outSlope: 8.969729
        tangentMode: 0
      - serializedVersion: 2
        time: 0.15
        value: -0.018131498
        inSlope: 9.1129875
        outSlope: 9.1129875
        tangentMode: 0
      - serializedVersion: 2
        time: 0.16666667
        value: 0.139631
        inSlope: 11.334645
        outSlope: 11.334645
        tangentMode: 0
      - serializedVersion: 2
        time: 0.18333334
        value: 0.35968998
        inSlope: 11.483936
        outSlope: 11.483936
        tangentMode: 0
      - serializedVersion: 2
        time: 0.2
        value: 0.5224289
        inSlope: 8.655281
        outSlope: 8.655281
        tangentMode: 0
      - serializedVersion: 2
        time: 0.21666667
        value: 0.6481993
        inSlope: 5.644856
        outSlope: 5.644856
        tangentMode: 0
      - serializedVersion: 2
        time: 0.23333333
        value: 0.7105907
        inSlope: 4.9507017
        outSlope: 4.9507017
        tangentMode: 0
      - serializedVersion: 2
        time: 0.25
        value: 0.8132227
        inSlope: 8.674313
        outSlope: 8.674313
        tangentMode: 0
      - serializedVersion: 2
        time: 0.26666668
        value: 0.99973464
        inSlope: 11.190706
        outSlope: 11.190706
        tangentMode: 0
      m_PreInfinity: 2
      m_PostInfinity: 2
      m_RotationOrder: 4
    attribute: m_LocalRotation.w
    path: 
    classID: 4
    script: {fileID: 0}
  m_EulerEditorCurves:
  - curve:
      serializedVersion: 2
      m_Curve:
      - serializedVersion: 2
        time: 0
        value: 0
        inSlope: 0
        outSlope: 0
        tangentMode: 136
      - serializedVersion: 2
        time: 0.016666668
        value: 0
        inSlope: 0
        outSlope: 0
        tangentMode: 136
      - serializedVersion: 2
        time: 0.033333335
        value: 0
        inSlope: 0
        outSlope: 0
        tangentMode: 136
      - serializedVersion: 2
        time: 0.06666667
        value: 0
        inSlope: 0
        outSlope: 0
        tangentMode: 136
      - serializedVersion: 2
        time: 0.1
        value: 0
        inSlope: 0
        outSlope: 0
        tangentMode: 136
      - serializedVersion: 2
        time: 0.13333334
        value: 0
        inSlope: 0
        outSlope: 0
        tangentMode: 136
      - serializedVersion: 2
        time: 0.16666667
        value: 0
        inSlope: 0
        outSlope: 0
        tangentMode: 136
      - serializedVersion: 2
        time: 0.18333334
        value: 0
        inSlope: 0
        outSlope: 0
        tangentMode: 136
      - serializedVersion: 2
        time: 0.2
        value: 0
        inSlope: 0
        outSlope: 0
        tangentMode: 136
      - serializedVersion: 2
        time: 0.23333333
        value: 0
        inSlope: 0
        outSlope: 0
        tangentMode: 136
      - serializedVersion: 2
        time: 0.25
        value: 0
        inSlope: 0
        outSlope: 0
        tangentMode: 136
      - serializedVersion: 2
        time: 0.26666668
        value: 0
        inSlope: 0
        outSlope: 0
        tangentMode: 136
      m_PreInfinity: 2
      m_PostInfinity: 2
      m_RotationOrder: 4
    attribute: localEulerAnglesBaked.x
    path: 
    classID: 4
    script: {fileID: 0}
  - curve:
      serializedVersion: 2
      m_Curve:
      - serializedVersion: 2
        time: 0
        value: 0
        inSlope: 0
        outSlope: 0
        tangentMode: 136
      - serializedVersion: 2
        time: 0.016666668
        value: 0
        inSlope: 0
        outSlope: 0
        tangentMode: 136
      - serializedVersion: 2
        time: 0.033333335
        value: 0
        inSlope: 0
        outSlope: 0
        tangentMode: 136
      - serializedVersion: 2
        time: 0.06666667
        value: 0
        inSlope: 0
        outSlope: 0
        tangentMode: 136
      - serializedVersion: 2
        time: 0.1
        value: 0
        inSlope: 0
        outSlope: 0
        tangentMode: 136
      - serializedVersion: 2
        time: 0.13333334
        value: 0
        inSlope: 0
        outSlope: 0
        tangentMode: 136
      - serializedVersion: 2
        time: 0.16666667
        value: 0
        inSlope: 0
        outSlope: 0
        tangentMode: 136
      - serializedVersion: 2
        time: 0.18333334
        value: 0
        inSlope: 0
        outSlope: 0
        tangentMode: 136
      - serializedVersion: 2
        time: 0.2
        value: 0
        inSlope: 0
        outSlope: 0
        tangentMode: 136
      - serializedVersion: 2
        time: 0.23333333
        value: 0
        inSlope: 0
        outSlope: 0
        tangentMode: 136
      - serializedVersion: 2
        time: 0.25
        value: 0
        inSlope: 0
        outSlope: 0
        tangentMode: 136
      - serializedVersion: 2
        time: 0.26666668
        value: 0
        inSlope: 0
        outSlope: 0
        tangentMode: 136
      m_PreInfinity: 2
      m_PostInfinity: 2
      m_RotationOrder: 4
    attribute: localEulerAnglesBaked.y
    path: 
    classID: 4
    script: {fileID: 0}
  - curve:
      serializedVersion: 2
      m_Curve:
      - serializedVersion: 2
        time: 0
        value: 357.36
        inSlope: 0
        outSlope: 0
        tangentMode: 136
      - serializedVersion: 2
        time: 0.016666668
        value: 330.956
        inSlope: -1812.7798
        outSlope: -1812.7798
        tangentMode: 136
      - serializedVersion: 2
        time: 0.033333335
        value: 296.934
        inSlope: -1259.2601
        outSlope: -1259.2601
        tangentMode: 136
      - serializedVersion: 2
        time: 0.06666667
        value: 267.99298
        inSlope: -931.43994
        outSlope: -931.43994
        tangentMode: 136
      - serializedVersion: 2
        time: 0.1
        value: 234.838
        inSlope: -1036.4847
        outSlope: -1036.4847
        tangentMode: 136
      - serializedVersion: 2
        time: 0.13333334
        value: 198.894
        inSlope: -1063.3649
        outSlope: -1063.3649
        tangentMode: 136
      - serializedVersion: 2
        time: 0.16666667
        value: 163.947
        inSlope: -1221.1262
        outSlope: -1221.1262
        tangentMode: 136
      - serializedVersion: 2
        time: 0.18333334
        value: 137.83769
        inSlope: -1408.1292
        outSlope: -1408.1292
        tangentMode: 136
      - serializedVersion: 2
        time: 0.2
        value: 117.00937
        inSlope: -968.0738
        outSlope: -968.0738
        tangentMode: 136
      - serializedVersion: 2
        time: 0.23333333
        value: 89.434006
        inSlope: 0
        outSlope: 0
        tangentMode: 136
      - serializedVersion: 2
        time: 0.25
        value: 431.176
        inSlope: 0
        outSlope: 0
        tangentMode: 136
      - serializedVersion: 2
        time: 0.26666668
        value: 357.36
        inSlope: 0
        outSlope: 0
        tangentMode: 136
      m_PreInfinity: 2
      m_PostInfinity: 2
      m_RotationOrder: 4
    attribute: localEulerAnglesBaked.z
    path: 
    classID: 4
    script: {fileID: 0}
  m_HasGenericRootTransform: 0
  m_HasMotionFloatCurves: 0
  m_GenerateMotionCurves: 0
  m_Events: []
